%YAML 1.1
%TAG !u! tag:unity3d.com,2011:
--- !u!114 &11400000
MonoBehaviour:
  m_ObjectHideFlags: 0
  m_CorrespondingSourceObject: {fileID: 0}
  m_PrefabInstance: {fileID: 0}
  m_PrefabAsset: {fileID: 0}
  m_GameObject: {fileID: 0}
  m_Enabled: 1
  m_EditorHideFlags: 0
  m_Script: {fileID: 11500000, guid: fc237b85e2a14198a53a4d8fd5a6733d, type: 3}
  m_Name: 1-ing-mockingbird
  m_EditorClassIdentifier: 
  id: 1
  choiceName: Mocking Bird
  deficiency: won't Sing
  inRhyme: -urd
  outRhyme: -ing
  key: mockingbird
  texture: {fileID: 2800000, guid: 9a5b0ecd8ea90445eb7d0eda5fb2b65d, type: 3}
