%YAML 1.1
%TAG !u! tag:unity3d.com,2011:
--- !u!114 &11400000
MonoBehaviour:
  m_ObjectHideFlags: 0
  m_CorrespondingSourceObject: {fileID: 0}
  m_PrefabInstance: {fileID: 0}
  m_PrefabAsset: {fileID: 0}
  m_GameObject: {fileID: 0}
  m_Enabled: 1
  m_EditorHideFlags: 0
  m_Script: {fileID: 11500000, guid: fc237b85e2a14198a53a4d8fd5a6733d, type: 3}
  m_Name: 2-ine-ring
  m_EditorClassIdentifier: 
  id: 2
  choiceName: diamond Ring
  deficiency: won't Shine
  inRhyme: -ing
  outRhyme: -ine
  key: ring
  texture: {fileID: 2800000, guid: 6a9515570749749199d7834f3581cf4e, type: 3}
